The effect of tarrif reduction on consumer price
…
The effect of tarrif reduction on consumer price

Dor Meir

August 22, 2019

Data exploration - graphs of nominal price

## # A tibble: 2,242 x 7
##    brand_name     price_nom date_n month  year  tuna sardin
##    <fct>              <dbl>  <dbl> <fct> <dbl> <dbl>  <dbl>
##  1 starkist_m_big      37.9  12014 dec    2014     1      0
##  2 starkist_m_big      39.5  22015 jan    2015     1      0
##  3 starkist_m_big      38.0  32015 feb    2015     1      0
##  4 starkist_m_big      35.9  42015 mar    2015     1      0
##  5 starkist_m_big      38.2  52015 apr    2015     1      0
##  6 starkist_m_big      36.1  62015 may    2015     1      0
##  7 starkist_m_big      36.6  72015 jun    2015     1      0
##  8 starkist_m_big      39.3  82015 jul    2015     1      0
##  9 starkist_m_big      37.8  92015 aug    2015     1      0
## 10 starkist_m_big      38.1 102015 sep    2015     1      0
## # ... with 2,232 more rows
…
## # A tibble: 1,363 x 7
##    brand_name    price_nom date_n month  year olive cooking_oil
##    <fct>             <dbl>  <dbl> <fct> <dbl> <dbl>       <dbl>
##  1 yad_mordechai      36.9 102015 sep    2015     1           0
##  2 yad_mordechai      43.3 112015 oct    2015     1           0
##  3 yad_mordechai      45.2 122015 nov    2015     1           0
##  4 yad_mordechai      45.5 132015 dec    2015     1           0
##  5 yad_mordechai      37.6 142016 jan    2016     1           0
##  6 yad_mordechai      40.6 152016 feb    2016     1           0
##  7 yad_mordechai      42.5 162016 mar    2016     1           0
##  8 yad_mordechai      39.3 172016 apr    2016     1           0
##  9 yad_mordechai      41.8 182016 may    2016     1           0
## 10 yad_mordechai      39.0 192016 jun    2016     1           0
## # ... with 1,353 more rows
…
## # A tibble: 1,189 x 7
##    brand_name price_nom date_n month  year yellow white_cheese
##    <fct>          <dbl>  <dbl> <fct> <dbl>  <dbl>        <dbl>
##  1 emek            55.7 102015 sep    2015      1            0
##  2 emek            55.8 112015 oct    2015      1            0
##  3 emek            55.4 122015 nov    2015      1            0
##  4 emek            55.2 132015 dec    2015      1            0
##  5 emek            54.9 142016 jan    2016      1            0
##  6 emek            55.1 152016 feb    2016      1            0
##  7 emek            54.7 162016 mar    2016      1            0
##  8 emek            55.5 172016 apr    2016      1            0
##  9 emek            55.4 182016 may    2016      1            0
## 10 emek            53.7 192016 jun    2016      1            0
## # ... with 1,179 more rows
…
Net price - price minus raw material cost (Random effects only)

The explained is the consumer price minus material cost or cost of prduct in a country which is a main exporter to Israel

Graphs - net price

## # A tibble: 2,242 x 7
##    brand_name     price_net date_n month  year  tuna sardin
##    <fct>              <dbl>  <dbl> <fct> <dbl> <dbl>  <dbl>
##  1 starkist_m_big      33.4  12014 dec    2014     1      0
##  2 starkist_m_big      35.0  22015 jan    2015     1      0
##  3 starkist_m_big      33.4  32015 feb    2015     1      0
##  4 starkist_m_big      31.9  42015 mar    2015     1      0
##  5 starkist_m_big      34.1  52015 apr    2015     1      0
##  6 starkist_m_big      32.0  62015 may    2015     1      0
##  7 starkist_m_big      32.0  72015 jun    2015     1      0
##  8 starkist_m_big      34.0  82015 jul    2015     1      0
##  9 starkist_m_big      32.2  92015 aug    2015     1      0
## 10 starkist_m_big      32.7 102015 sep    2015     1      0
## # ... with 2,232 more rows
…
## # A tibble: 1,363 x 7
##    brand_name    price_net date_n month  year olive cooking_oil
##    <fct>             <dbl>  <dbl> <fct> <dbl> <dbl>       <dbl>
##  1 yad_mordechai      20.1 102015 sep    2015     1           0
##  2 yad_mordechai      27.0 112015 oct    2015     1           0
##  3 yad_mordechai      31.1 122015 nov    2015     1           0
##  4 yad_mordechai      32.8 132015 dec    2015     1           0
##  5 yad_mordechai      24.0 142016 jan    2016     1           0
##  6 yad_mordechai      26.7 152016 feb    2016     1           0
##  7 yad_mordechai      29.3 162016 mar    2016     1           0
##  8 yad_mordechai      26.0 172016 apr    2016     1           0
##  9 yad_mordechai      29.0 182016 may    2016     1           0
## 10 yad_mordechai      25.9 192016 jun    2016     1           0
## # ... with 1,353 more rows
…
## # A tibble: 1,189 x 7
##    brand_name price_net date_n month  year yellow white_cheese
##    <fct>          <dbl>  <dbl> <fct> <dbl>  <dbl>        <dbl>
##  1 emek            44.7 102015 sep    2015      1            0
##  2 emek            44.9 112015 oct    2015      1            0
##  3 emek            44.5 122015 nov    2015      1            0
##  4 emek            44.9 132015 dec    2015      1            0
##  5 emek            44.7 142016 jan    2016      1            0
##  6 emek            45.3 152016 feb    2016      1            0
##  7 emek            45.0 162016 mar    2016      1            0
##  8 emek            45.7 172016 apr    2016      1            0
##  9 emek            46.1 182016 may    2016      1            0
## 10 emek            43.8 192016 jun    2016      1            0
## # ... with 1,179 more rows
…
